stm32f4xx_hal_msp.c:75:6:HAL_MspInit	16	static
stm32f4xx_hal_msp.c:99:6:HAL_ADC_MspInit	24	static
stm32f4xx_hal_msp.c:144:6:HAL_ADC_MspDeInit	16	static
stm32f4xx_hal_msp.c:172:6:HAL_TIM_Base_MspInit	56	static
stm32f4xx_hal_msp.c:248:6:HAL_TIM_MspPostInit	48	static
stm32f4xx_hal_msp.c:310:6:HAL_TIM_Base_MspDeInit	16	static
stm32f4xx_hal_msp.c:368:6:HAL_UART_MspInit	56	static
stm32f4xx_hal_msp.c:498:6:HAL_UART_MspDeInit	16	static
